
{
    "ProductVersion" : "3.1.90.0",
    "CoreVersion"    : "3.1.9.1",
    "DefaultToPreview" : false,
    "ServiceVersions"  : {
        "CloudHSM" : {
            "Version" : "3.1.2.4",
            "Dependencies" : {
                "Core" : "3.1.9.0"
            },
            "InPreview"    : false
        },
        "AutoScaling" : {
            "Version" : "3.1.3.4",
            "Dependencies" : {
                "Core" : "3.1.9.0"
            },
            "InPreview"    : false
        },
        "AWSSupport"  : {
            "Version" : "3.1.0.8",
            "Dependencies" : {
                "Core" : "3.1.9.0"
            },
            "InPreview"    : false
        },
        "CloudFormation" : {
            "Version" : "3.1.6.0",
            "Dependencies" : {
                "Core" : "3.1.9.0"
            },
            "InPreview"    : false
        },
        "CloudFront"     : {
            "Version" : "3.1.4.5",
            "Dependencies" : {
                "Core" : "3.1.9.0"
            },
            "InPreview"    : false
        },
        "CloudSearch"    : {
            "Version" : "3.1.0.8",
            "Dependencies" : {
                "Core" : "3.1.9.0"
            },
            "InPreview"    : false
        },
        "CloudSearchDomain" : {
            "Version" : "3.1.1.4",
            "Dependencies" : {
                "Core" : "3.1.9.0"
            },
            "InPreview"    : false
        },
        "CloudTrail"        : {
            "Version" : "3.1.5.2",
            "Dependencies" : {
                "Core" : "3.1.9.0"
            },
            "InPreview"    : false
        },
        "ConfigService"     : {
            "Version" : "3.1.6.0",
            "Dependencies" : {
                "Core" : "3.1.9.0"
            },
            "InPreview"    : false
        },
        "CloudWatch"        : {
            "Version" : "3.1.0.10",
            "Dependencies" : {
                "Core" : "3.1.9.0"
            },
            "InPreview"    : false
        },
        "CloudWatchLogs"    : {
            "Version" : "3.1.3.0",
            "Dependencies" : {
                "Core" : "3.1.9.0"
            },
            "InPreview"    : false
        },
        "CodeDeploy"        : {
            "Version" : "3.1.2.5",
            "Dependencies" : {
                "Core" : "3.1.9.0"
            },
            "InPreview"    : false
        },
        "CognitoIdentity"   : {
            "Version" : "3.1.1.2",
            "Dependencies" : {
                "Core" : "3.1.9.0",
                "SecurityToken" : "3.1.4.3"
            },
            "InPreview"    : false
        },
        "CognitoSync"       : {
            "Version" : "3.1.1.6",
            "Dependencies" : {
                "Core" : "3.1.9.0",
                "CognitoIdentity" : "3.1.1.2"
            },
            "InPreview"    : false
        },
        "DataPipeline"      : {
            "Version" : "3.1.0.8",
            "Dependencies" : {
                "Core" : "3.1.9.0"
            },
            "InPreview"    : false
        },
        "DeviceFarm"        : {
            "Version" : "3.1.7.0",
            "Dependencies" : {
                "Core" : "3.1.9.0"
            },
            "InPreview"    : false
        },
        "DirectConnect"     : {
            "Version" : "3.1.2.2",
            "Dependencies" : {
                "Core" : "3.1.9.0"
            },
            "InPreview"    : false
        },
        "DynamoDBv2"        : {
            "Version" : "3.1.5.2",
            "Dependencies" : {
                "Core" : "3.1.9.0"
            },
            "InPreview"    : false
        },
        "EC2"               : {
            "Version" : "3.1.19.0",
            "Dependencies" : {
                "Core" : "3.1.9.0"
            },
            "InPreview"    : false
        },
        "ECS"               : {
            "Version" : "3.1.6.1",
            "Dependencies" : {
                "Core" : "3.1.9.0"
            },
            "InPreview"    : false
        },
        "ElastiCache"       : {
            "Version" : "3.1.3.3",
            "Dependencies" : {
                "Core" : "3.1.9.0"
            },
            "InPreview"    : false
        },
        "ElasticBeanstalk"  : {
            "Version" : "3.1.5.4",
            "Dependencies" : {
                "Core" : "3.1.9.0"
            },
            "InPreview"    : false
        },
        "ElasticLoadBalancing" : {
            "Version" : "3.1.0.8",
            "Dependencies" : {
                "Core" : "3.1.9.0"
            },
            "InPreview"    : false
        },
        "ElasticMapReduce"     : {
            "Version" : "3.1.6.0",
            "Dependencies" : {
                "Core" : "3.1.9.0"
            },
            "InPreview"    : false
        },
        "ElasticTranscoder"    : {
            "Version" : "3.1.0.10",
            "Dependencies" : {
                "Core" : "3.1.9.0"
            },
            "InPreview"    : false
        },
        "Glacier"              : {
            "Version" : "3.1.0.10",
            "Dependencies" : {
                "Core" : "3.1.9.0",
                "SQS"  : "3.1.0.12",
                "SimpleNotificationService" : "3.1.1.1"
            },
            "InPreview"    : false
        },
        "IdentityManagement"   : {
            "Version" : "3.1.4.7",
            "Dependencies" : {
                "Core" : "3.1.9.0"
            },
            "InPreview"    : false
        },
        "ImportExport"         : {
            "Version" : "3.1.1.7",
            "Dependencies" : {
                "Core" : "3.1.9.0"
            },
            "InPreview"    : false
        },
        "Kinesis"              : {
            "Version" : "3.1.3.4",
            "Dependencies" : {
                "Core" : "3.1.9.0"
            },
            "InPreview"    : false
        },
        "Lambda"               : {
            "Version" : "3.1.4.6",
            "Dependencies" : {
                "Core" : "3.1.9.0"
            },
            "InPreview"    : false
        },
        "KeyManagementService" : {
            "Version" : "3.1.2.4",
            "Dependencies" : {
                "Core" : "3.1.9.0"
            },
            "InPreview"    : false
        },
        "MachineLearning"      : {
            "Version" : "3.1.3.0",
            "Dependencies" : {
                "Core" : "3.1.9.0"
            },
            "InPreview"    : false
        },
        "MobileAnalytics"      : {
            "Version" : "3.1.1.11",
            "Dependencies" : {
                "Core" : "3.1.9.0"
            },
            "InPreview"    : false
        },
        "OpsWorks"             : {
            "Version" : "3.1.3.3",
            "Dependencies" : {
                "Core" : "3.1.9.0"
            },
            "InPreview"    : false
        },
        "RDS"                  : {
            "Version" : "3.1.15.0",
            "Dependencies" : {
                "Core" : "3.1.9.0"
            },
            "InPreview"    : false
        },
        "Redshift"             : {
            "Version" : "3.1.2.4",
            "Dependencies" : {
                "Core" : "3.1.9.0"
            },
            "InPreview"    : false
        },
        "Route53"              : {
            "Version" : "3.1.5.1",
            "Dependencies" : {
                "Core" : "3.1.9.0"
            },
            "InPreview"    : false
        },
        "Route53Domains"       : {
            "Version" : "3.1.2.0",
            "Dependencies" : {
                "Core" : "3.1.9.0"
            },
            "InPreview"    : false
        },
        "S3"                   : {
            "Version" : "3.1.8.1",
            "Dependencies" : {
                "Core" : "3.1.9.0"
            },
            "InPreview"    : false
        },
        "SecurityToken"        : {
            "Version" : "3.1.4.4",
            "Dependencies" : {
                "Core" : "3.1.9.0"
            },
            "InPreview"    : false
        },
        "SimpleDB"             : {
            "Version" : "3.1.0.8",
            "Dependencies" : {
                "Core" : "3.1.9.0"
            },
            "InPreview"    : false
        },
        "SimpleEmail"          : {
            "Version" : "3.1.4.3",
            "Dependencies" : {
                "Core" : "3.1.9.0"
            },
            "InPreview"    : false
        },
        "SimpleNotificationService" : {
            "Version" : "3.1.1.1",
            "Dependencies" : {
                "Core" : "3.1.9.0"
            },
            "InPreview"    : false
        },
        "SimpleWorkflow"            : {
            "Version" : "3.1.1.8",
            "Dependencies" : {
                "Core" : "3.1.9.0"
            },
            "InPreview"    : false
        },
        "SQS"                       : {
            "Version" : "3.1.0.12",
            "Dependencies" : {
                "Core" : "3.1.9.0"
            },
            "InPreview"    : false
        },
        "SimpleSystemsManagement"   : {
            "Version" : "3.1.4.0",
            "Dependencies" : {
                "Core" : "3.1.9.0"
            },
            "InPreview"    : false
        },
        "StorageGateway"            : {
            "Version" : "3.1.4.4",
            "Dependencies" : {
                "Core" : "3.1.9.0"
            },
            "InPreview"    : false
        },
        "WorkSpaces"                : {
            "Version" : "3.1.2.4",
            "Dependencies" : {
                "Core" : "3.1.9.0"
            },
            "InPreview"    : false
        },
        "DirectoryService"          : {
            "Version" : "3.1.5.1",
            "Dependencies" : {
                "Core" : "3.1.9.0"
            },
            "InPreview"    : false
        },
        "ElasticFileSystem"         : {
            "Version" : "3.1.2.2",
            "Dependencies" : {
                "Core" : "3.1.9.0"
            },
            "InPreview"    : false
        },
        "CodeCommit"                : {
            "Version" : "3.1.1.4",
            "Dependencies" : {
                "Core" : "3.1.9.0"
            },
            "InPreview"    : false
        },
        "CodePipeline"              : {
            "Version" : "3.1.3.1",
            "Dependencies" : {
                "Core" : "3.1.9.0"
            },
            "InPreview"    : false
        },
        "Elasticsearch"             : {
            "Version" : "3.1.1.0",
            "Dependencies" : {
                "Core" : "3.1.9.0"
            },
            "InPreview"    : false
        },
        "WAF"                       : {
            "Version" : "3.1.2.4",
            "Dependencies" : {
                "Core" : "3.1.9.0"
            },
            "InPreview"    : false
        },
        "KinesisFirehose"           : {
            "Version" : "3.1.2.4",
            "Dependencies" : {
                "Core" : "3.1.9.0"
            },
            "InPreview"    : false
        },
        "AWSMarketplaceCommerceAnalytics" : {
            "Version" : "3.1.2.4",
            "Dependencies" : {
                "Core" : "3.1.9.0"
            },
            "InPreview"    : false
        },
        "Inspector"                       : {
            "Version" : "3.1.2.5",
            "Dependencies" : {
                "Core" : "3.1.9.0"
            },
            "InPreview"    : false
        },
        "IoT"                             : {
            "Version" : "3.1.8.0",
            "Dependencies" : {
                "Core" : "3.1.9.0"
            },
            "InPreview"    : false
        },
        "IotData"                         : {
            "Version" : "3.1.0.7",
            "Dependencies" : {
                "Core" : "3.1.9.0"
            },
            "InPreview"    : false
        },
        "APIGateway"                      : {
            "Version" : "3.1.6.0",
            "Dependencies" : {
                "Core" : "3.1.9.0"
            },
            "InPreview"    : false
        },
        "ECR"                             : {
            "Version" : "3.1.1.4",
            "Dependencies" : {
                "Core" : "3.1.9.0"
            },
            "InPreview"    : false
        },
        "CloudWatchEvents"                : {
            "Version" : "3.1.2.1",
            "Dependencies" : {
                "Core" : "3.1.9.0"
            },
            "InPreview"    : false
        },
        "CertificateManager"              : {
            "Version" : "3.1.4.0",
            "Dependencies" : {
                "Core" : "3.1.9.0"
            },
            "InPreview"    : false
        },
        "GameLift"                        : {
            "Version" : "3.1.2.0",
            "Dependencies" : {
                "Core" : "3.1.9.0"
            },
            "InPreview"    : false
        },
        "DatabaseMigrationService"        : {
            "Version" : "3.1.2.0",
            "Dependencies" : {
                "Core" : "3.1.9.0"
            },
            "InPreview"    : false
        },
        "AWSMarketplaceMetering"          : {
            "Version" : "3.1.0.5",
            "Dependencies" : {
                "Core" : "3.1.9.0"
            },
            "InPreview"    : false
        },
        "CognitoIdentityProvider"         : {
            "Version" : "3.1.1.0",
            "Dependencies" : {
                "Core" : "3.1.9.0"
            },
            "InPreview"    : false
        },
        "ApplicationDiscoveryService"     : {
            "Version" : "3.1.1.4",
            "Dependencies" : {
                "Core" : "3.1.9.0"
            },
            "InPreview"    : false
        },
        "ApplicationAutoScaling"          : {
            "Version" : "3.1.0.5",
            "Dependencies" : {
                "Core" : "3.1.9.0"
            },
            "InPreview"    : false
        },
        "ServiceCatalog"                  : {
            "Version" : "3.1.0.1",
            "Dependencies" : {
                "Core" : "3.1.9.0"
            },
            "InPreview"    : false
        }
    }
}